…
``` r
records_shortcut_comparison <- records %>% 
  filter(type == "Three Lap") %>% 
  group_by(track, shortcut) %>% 
  summarize(current_record = min(time)) %>% 
  mutate(shortcut = factor(shortcut, levels = c("Yes", "No")))
```

    ## `summarise()` has grouped output by 'track'. You can override using the `.groups` argument.

``` r
records_shortcut_comparison
```

    ## # A tibble: 28 x 3
    ## # Groups:   track [16]
    ##    track                 shortcut current_record
    ##    <chr>                 <fct>             <dbl>
    ##  1 Banshee Boardwalk     No                124. 
    ##  2 Bowser's Castle       No                132  
    ##  3 Choco Mountain        No                116. 
    ##  4 Choco Mountain        Yes                17.3
    ##  5 D.K.'s Jungle Parkway No                132. 
    ##  6 D.K.'s Jungle Parkway Yes                21.4
    ##  7 Frappe Snowland       No                120. 
    ##  8 Frappe Snowland       Yes                23.6
    ##  9 Kalimari Desert       No                124. 
    ## 10 Kalimari Desert       Yes               122. 
    ## # ... with 18 more rows
…
